<svg width="473" height="125" viewBox="0 0 473 125" fill="none" xmlns="http://www.w3.org/2000/svg">
<path d="M233 65.9099H246.54V70.3299H237.8V75.8699H246V79.9999H237.8V87.9999H233V65.9099Z" fill="black"/>
<path d="M248.77 77C248.798 74.7483 249.49 72.5551 250.761 70.696C252.032 68.8369 253.823 67.395 255.911 66.5515C257.999 65.708 260.29 65.5005 262.495 65.9552C264.701 66.4099 266.722 67.5065 268.306 69.1071C269.89 70.7076 270.966 72.7407 271.397 74.9508C271.829 77.1608 271.598 79.4492 270.732 81.5281C269.867 83.607 268.407 85.3838 266.534 86.6349C264.662 87.8861 262.462 88.5558 260.21 88.56C258.689 88.5905 257.178 88.3114 255.768 87.7397C254.358 87.1681 253.08 86.3157 252.01 85.2345C250.94 84.1532 250.101 82.8657 249.544 81.4501C248.987 80.0345 248.724 78.5205 248.77 77V77ZM266.71 77C266.71 72.46 263.54 69.88 260.21 69.88C256.88 69.88 253.66 72.46 253.66 77C253.66 81.54 256.84 84.14 260.21 84.14C263.58 84.14 266.71 81.5 266.71 77Z" fill="black"/>
<path d="M291.91 87.9999H286.1L280.23 80.2299H280V87.9999H275.17V65.9099H282.17C287.5 65.9099 290.82 68.4899 290.82 73.1099C290.82 75.7499 289.43 78.7499 285.19 79.8399L291.91 87.9999ZM282 76.5199C284.61 76.5199 286 75.3699 286 73.4099C286 71.4499 284.49 70.3299 282.09 70.3299H280V76.5199H282Z" fill="black"/>
<path d="M302 79.3099V65.9099H306.84V79.3399C306.84 82.3399 308.44 84.1099 311.11 84.1099C313.78 84.1099 315.52 82.3599 315.52 79.3099V65.9099H320.39V79.3099C320.39 84.7399 316.83 88.5299 311.11 88.5299C305.39 88.5299 302 84.7399 302 79.3099Z" fill="black"/>
<path d="M338.05 87.9999L329.72 77.4699V87.9999H324.88V65.9099H329.72V76.2899L338 65.9099H343.66L334.83 76.8199L343.83 88.0299L338.05 87.9999Z" fill="black"/>
<path d="M362.84 87.9999H357L351.13 80.2299H351V87.9999H346.17V65.9099H353.17C358.51 65.9099 361.83 68.4899 361.83 73.1099C361.83 75.7499 360.44 78.7499 356.2 79.8399L362.84 87.9999ZM352.9 76.4899C355.51 76.4899 356.9 75.3399 356.9 73.3799C356.9 71.4199 355.39 70.2999 352.98 70.2999H350.98V76.4899H352.9Z" fill="black"/>
<path d="M380.57 87.9999L378.57 82.5999H370.3L368.4 87.9999H363.4L371.67 65.8799H377.25L385.64 87.9999H380.57ZM371.67 78.6299H377.25L374.46 70.9999L371.67 78.6299Z" fill="black"/>
<path d="M388.1 65.9099H392.93V87.9999H388.1V65.9099Z" fill="black"/>
<path d="M416.8 87.9999H412.24L402.39 73.5599V87.9999H397.77V65.9099H402.45L412.21 80.1099V65.9099H416.8V87.9999Z" fill="black"/>
<path d="M421.61 65.9099H426.44V87.9999H421.61V65.9099Z" fill="black"/>
<path d="M446.13 87.9999L444.13 82.5999H435.9L434 87.9999H429L437.27 65.8799H442.85L451.2 87.9999H446.13ZM437.23 78.6299H442.81L440 70.9999L437.23 78.6299Z" fill="black"/>
<path d="M472.72 87.9999H468.16L458.32 73.5599V87.9999H453.69V65.9099H458.37L468.13 80.1099V65.9099H472.72V87.9999Z" fill="black"/>
<path d="M249.69 123.61H243.88L238 115.84H237.79V123.61H233V101.49H240C245.34 101.49 248.66 104.07 248.66 108.7C248.66 111.33 247.27 114.33 243.03 115.43L249.69 123.61ZM239.76 112.11C242.36 112.11 243.76 110.95 243.76 108.99C243.76 107.03 242.25 105.91 239.84 105.91H237.84V112.11H239.76Z" fill="black"/>
<path d="M252.63 101.49H266.5V105.85H257.5V110.44H265.77V114.44H257.5V119.27H266.5V123.6H252.63V101.49Z" fill="black"/>
<path d="M270.59 101.49H284.14V105.91H275.43V111.45H283.61V115.6H275.43V123.6H270.59V101.49Z" fill="black"/>
<path d="M287.64 114.89V101.49H292.47V114.92C292.47 117.92 294.08 119.7 296.74 119.7C299.4 119.7 301.16 117.95 301.16 114.89V101.49H306V114.89C306 120.32 302.45 124.11 296.72 124.11C290.99 124.11 287.64 120.32 287.64 114.89Z" fill="black"/>
<path d="M320.82 119.7C321.92 119.72 323.01 119.48 324 119V111.68H328.42V121.85C326.139 123.344 323.466 124.127 320.74 124.1C317.674 124.1 314.734 122.882 312.566 120.714C310.398 118.546 309.18 115.606 309.18 112.54C309.18 109.474 310.398 106.534 312.566 104.366C314.734 102.198 317.674 100.98 320.74 100.98C323.101 100.951 325.43 101.533 327.5 102.67V107.44C325.681 106.174 323.516 105.5 321.3 105.51C320.352 105.475 319.407 105.636 318.524 105.983C317.641 106.33 316.84 106.856 316.17 107.527C315.499 108.198 314.975 109 314.629 109.884C314.283 110.767 314.124 111.712 314.16 112.66C314.21 116.76 317.06 119.7 320.82 119.7Z" fill="black"/>
<path d="M332.39 101.49H346.26V105.85H337.26V110.44H345.53V114.44H337.26V119.27H346.26V123.6H332.39V101.49Z" fill="black"/>
<path d="M350.35 101.49H364.23V105.85H355.23V110.44H363.5V114.44H355.23V119.27H364.23V123.6H350.35V101.49Z" fill="black"/>
<path d="M381.1 102.53V107C379.474 105.92 377.571 105.333 375.62 105.31C373.62 105.31 372.3 106.08 372.3 107.47C372.3 108.86 373.51 109.37 375.82 110.32C378.97 111.56 382.41 112.96 382.41 117.17C382.41 121.38 379.17 124.1 374.28 124.1C371.895 124.131 369.558 123.434 367.58 122.1V117.41C369.305 118.93 371.512 119.791 373.81 119.84C376 119.84 377.45 118.84 377.45 117.32C377.45 115.8 375.91 115.13 373.51 114.15C370.78 113.02 367.51 111.57 367.51 107.63C367.51 103.69 370.57 101.02 375.34 101.02C377.359 101.014 379.344 101.535 381.1 102.53V102.53Z" fill="black"/>
<path d="M95.22 68.9399L88.34 88.9399L91.34 97.5899L100.28 123.71H115.63L95.22 68.9399Z" fill="#005BBB"/>
<path d="M79.27 98.9799L79.68 97.5899H79.75L84.09 85.1199L90.71 65.8799H77.02L55.78 123.71H71.05L75.22 111.43H75.2L79.27 98.9799Z" fill="#FFD500"/>
<path d="M9.84999 47.24C14.96 47.24 18.14 44.06 18.14 37.86V1.72998H32.87V39.73C32.87 51.82 25.82 60.58 12.71 60.58C8.49699 60.6444 4.37228 59.3698 0.929993 56.94V43C2.03544 44.2938 3.40116 45.3401 4.93811 46.0706C6.47506 46.8012 8.14872 47.1996 9.84999 47.24V47.24Z" fill="#005BBB"/>
<path d="M41.63 30.6501C41.63 12.9001 54.88 0.330078 71.94 0.330078C89 0.330078 102.17 12.9001 102.17 30.6501C102.17 48.4001 89.07 61.0001 71.94 61.0001C54.81 61.0001 41.63 48.3201 41.63 30.6501ZM87.37 30.6501C87.37 19.8701 79.77 13.6501 71.94 13.6501C63.94 13.6501 56.43 19.8501 56.43 30.6501C56.43 41.4501 63.95 47.5501 71.94 47.5501C79.77 47.5501 87.37 41.4201 87.37 30.6501Z" fill="#005BBB"/>
<path d="M123.67 65.8799H138.4V123.71H123.67V65.8799Z" fill="#FFD500"/>
<path d="M201.37 94.7999C201.37 112.24 188.37 123.71 169.58 123.71H151.28V65.8799H169.58C188.42 65.8799 201.37 77.4299 201.37 94.7999ZM166 110.38H170.11C179.96 110.38 186.47 104.72 186.47 94.7999C186.47 84.8799 179.96 79.1399 170.11 79.1399H166V110.38Z" fill="#FFD500"/>
<path d="M168.56 40.1501C168.514 35.8197 166.824 31.6686 163.833 28.5366C160.843 25.4047 156.774 23.5257 152.45 23.28H133.79V23.39L133.9 36.39L146.9 36.2601H151.45C152.519 36.2623 153.544 36.6817 154.308 37.4288C155.072 38.176 155.514 39.1918 155.54 40.2601V41.8701C155.551 42.9557 155.13 44.0013 154.371 44.7775C153.612 45.5536 152.576 45.9969 151.49 46.0101H146.98L124.19 46.25L124 23.5401V18C123.976 16.9143 124.383 15.8633 125.133 15.0777C125.883 14.2922 126.914 13.8363 128 13.81H129.66C130.728 13.8124 131.752 14.2321 132.514 14.9795C133.277 15.7269 133.717 16.7427 133.74 17.81V18H146.74V17.7601C146.708 13.251 144.895 8.93738 141.695 5.76017C138.495 2.58295 134.169 0.799938 129.66 0.800049H127.87C123.343 0.860683 119.026 2.71377 115.863 5.95302C112.701 9.19227 110.952 13.5533 111 18.0801L111.05 23.6501L111.41 59.4401L147.21 59.07H151.71C156.244 59.0226 160.573 57.1766 163.746 53.9381C166.918 50.6996 168.675 46.3336 168.63 41.8001L168.56 40.1501Z" fill="#005BBB"/>
</svg>
