<svg xmlns="http://www.w3.org/2000/svg" x="0px" y="0px" width="48" height="48" viewBox="0 0 172 172" style="fill: #000000">
    <g fill="none" fill-rule="nonzero" stroke="none" stroke-width="1" stroke-linecap="butt" stroke-linejoin="miter" stroke-miterlimit="10" stroke-dasharray="" stroke-dashoffset="0" font-family="none" font-weight="none" font-size="none" text-anchor="none" style="mix-blend-mode: normal">
        <path d="M0,172v-172h172v172z" fill="none"></path>
        <path d="M86,172c-47.49649,0 -86,-38.50351 -86,-86v0c0,-47.49649 38.50351,-86 86,-86v0c47.49649,0 86,38.50351 86,86v0c0,47.49649 -38.50351,86 -86,86z" fill="#1e86d1"></path>
        <g>
            <path d="M86,30.1c-30.87272,0 -55.9,25.02728 -55.9,55.9c0,30.87272 25.02728,55.9 55.9,55.9c30.87272,0 55.9,-25.02728 55.9,-55.9c0,-30.87272 -25.02728,-55.9 -55.9,-55.9z" fill="#0288d1"></path>
            <path d="M58.05,72.025h11.18v41.925h-11.18zM63.60646,66.435h-0.06149c-3.33723,0 -5.49497,-2.48755 -5.49497,-5.59279c0,-3.17233 2.22482,-5.5872 5.62074,-5.5872c3.40151,0 5.49497,2.41488 5.55925,5.5872c0,3.10524 -2.15774,5.59279 -5.62354,5.59279zM116.745,87.3975c0,-8.49121 -6.88129,-15.3725 -15.3725,-15.3725c-5.20429,0 -9.79648,2.59376 -12.5775,6.55148v-6.55148h-11.18v41.925h11.18v-22.36c0,-4.63132 3.75368,-8.385 8.385,-8.385c4.63131,0 8.385,3.75369 8.385,8.385v22.36h11.18c0,0 0,-25.37581 0,-26.5525z" fill="#ffffff"></path>
        </g>
    </g>
</svg>